<?xml version="1.0" encoding="utf-8"?>
<!-- Generator: Adobe Illustrator 26.5.0, SVG Export Plug-In . SVG Version: 6.00 Build 0)  -->
<svg version="1.1" id="Warstwa_1" xmlns="http://www.w3.org/2000/svg" xmlns:xlink="http://www.w3.org/1999/xlink" x="0px" y="0px"
	 viewBox="0 0 163.4 48" style="enable-background:new 0 0 163.4 48;" xml:space="preserve">
<style type="text/css">
	.st0{clip-path:url(#SVGID_00000096017008871018586300000000657574974677748916_);}
	.st1{fill:#375CA2;}
	.st2{filter:url(#Adobe_OpacityMaskFilter);}
	.st3{mask:url(#mask0_84_287_00000003817394396990642620000009936594815550650807_);}
	.st4{fill:#FFFFFF;}
	.st5{fill:#448BFF;}
	.st6{fill:#565656;}
	.st7{clip-path:url(#SVGID_00000071543932977040542360000017094310588350904734_);}
	.st8{fill:#494949;}
	.st9{fill:#00085E;}
	.st10{opacity:0.3;}
	.st11{opacity:0.3;fill:#85FFCD;enable-background:new    ;}
	.st12{fill:#85FFCD;}
	.st13{fill:#FEFEFE;}
	.st14{clip-path:url(#SVGID_00000090260222210425484110000010599601800914548926_);}
	.st15{fill-rule:evenodd;clip-rule:evenodd;fill:#448BFF;}
</style>
<g>
	<path class="st6" d="M91.5,41.9v-0.3h-0.3v0.3H91.5z M92.4,41.9h0.3v-0.3h-0.3V41.9z M152.4,41.9v-0.3h-0.3v0.3H152.4z M153.3,41.9
		h0.3v-0.3h-0.3V41.9z"/>
	<g>
		<defs>
			<rect id="SVGID_00000044857625396246944690000004529009190141906326_" y="2.8" width="163.4" height="42.4"/>
		</defs>
		<clipPath id="SVGID_00000165924730862744507790000011905195355794395049_">
			<use xlink:href="#SVGID_00000044857625396246944690000004529009190141906326_"  style="overflow:visible;"/>
		</clipPath>
		<g style="clip-path:url(#SVGID_00000165924730862744507790000011905195355794395049_);">
			<path class="st8" d="M10.4,13v14.5c0,3-1.3,3.8-3.1,3.8l-0.4,0c-2.1-0.2-2.5-1.7-2.6-2.7c0,0,0,0,0,0v-0.1c0-0.4,0-0.7,0-0.7H0
				v0.6c0,0.5,0.1,1,0.2,1.6c0.1,0.6,0.3,1.1,0.5,1.6c0.1,0.2,0.1,0.3,0.2,0.4c1.2,2,3.4,3.2,6.4,3.2c4.7,0,7.5-2.1,7.5-8.1V13H10.4
				z"/>
			<path class="st8" d="M28,25c0,4.3-1.9,6.6-4,6.6c-1.4,0-2.5-0.7-2.5-2.7V18.5h-4.3v11.6c0,3.3,2.2,4.9,5.3,4.9
				c2.2,0,4.1-1.2,5.4-2.9v2.9h4.3V18.5H28V25z"/>
			<path class="st8" d="M41.2,24.8c-1-0.3-1.6-0.9-1.6-1.6c0-0.9,0.7-1.3,1.5-1.3c0.5,0,1.1,0.1,1.6,0.4c0.5,0.2,0.9,0.6,1.2,1
				l2.5-2.2c-1-1.6-3-2.6-5.3-2.6c-3.3,0-5.4,2.2-5.4,4.7c0,2.5,1.6,3.6,3.4,4.3c2,0.8,4.2,1.1,4.2,2.4c0,1.2-0.8,1.7-2.1,1.7
				c-1.6,0-2.8-1.1-3.4-2.6l-3.3,1.7c0.6,1.3,1.5,2.4,2.7,3.1c1.2,0.8,2.6,1.2,4,1.2c3.6,0,6-2.4,6-5.3
				C47.3,26.3,43.5,25.6,41.2,24.8z"/>
			<path class="st8" d="M56.5,31.7c-1.4,0-2.3-0.6-2.3-2.6v-6.9h4.6v-3.4h-4.6V13H50v5.8h-2.7v3.4H50v7c0,4,2.4,5.9,6.4,5.9
				c1,0,1.9-0.2,2.8-0.6l-1-3.2C57.6,31.6,57.1,31.7,56.5,31.7z"/>
			<path class="st8" d="M70.9,17.4c1,0,2,0.2,2.9,0.6c0.3,0.1,0.6,0.2,0.9,0.4c0.9,0.6,1.6,1.5,2,2.5l3.8-0.9
				c-1.1-3.9-4.4-6.2-9.2-6.2c-5.6-0.1-10.7,3.8-10.6,10.6c-0.1,6.8,5,10.7,10.6,10.6c4.8,0,8.1-2.3,9.2-6.2L76.7,28
				c-0.4,1-1,1.9-1.9,2.5c-0.3,0.2-0.7,0.4-1,0.5c-0.9,0.4-1.8,0.6-2.8,0.6c-3.7,0-6.2-2.5-6.2-7C64.6,19.9,67.2,17.4,70.9,17.4z"/>
			<path class="st8" d="M89.3,31.6c-2.7,0-4.4-2.1-4.4-4.8c0-2.7,1.6-4.8,4.4-4.8c2.8,0,4.5,2.1,4.5,4.8
				C93.7,29.5,92.1,31.6,89.3,31.6z M94.2,21c-1.2-2-3.1-2.5-5.7-2.5c-4.3,0-7.2,3.7-7.2,8.3c0,4.6,2.9,8.3,7.2,8.3
				c2.6,0,4.5-0.5,5.7-2.4v2.1h3.7V18.8h-3.7V21z"/>
			<path class="st8" d="M105,13h-4v22h4V13z"/>
			<path class="st8" d="M112.9,13h-3.9v22h3.9V13z"/>
			<path class="st9" d="M162,2.8h-39.8c-0.7,0-1.4,0.6-1.4,1.4v39.7c0,0.7,0.6,1.4,1.4,1.4H162c0.7,0,1.4-0.6,1.4-1.4V4.2
				C163.4,3.4,162.8,2.8,162,2.8z"/>
			<g class="st10">
				<path class="st11" d="M162.7,36l-0.2-6.2c0-0.1,0-0.1-0.1-0.2l-1.9-2.3c0,0-0.1-0.1-0.1-0.1c0,0-0.1,0-0.2,0l-8.1,0.5l-3.4-4.1
					c0,0-0.1-0.1-0.1-0.1c0,0-0.1,0-0.1,0l-9.7-0.1c-0.1-0.3-0.3-0.6-0.6-0.8c-0.3-0.2-0.6-0.3-1-0.2c-0.3,0-0.7,0.2-0.9,0.5
					c-0.2,0.3-0.4,0.6-0.3,0.9c0,0.3,0.1,0.7,0.4,0.9c0.2,0.3,0.6,0.4,0.9,0.5c0.3,0,0.7-0.1,1-0.3c0.3-0.2,0.5-0.5,0.6-0.8l9.5,0.1
					l3.4,4.1c0,0,0.1,0.1,0.1,0.1c0,0,0.1,0,0.2,0l8.1-0.5l1.7,2.1l0.2,5.9l-6,5.6c-0.3-0.2-0.7-0.2-1-0.2c-0.3,0.1-0.7,0.2-0.9,0.5
					c-0.2,0.3-0.3,0.6-0.3,1c0,0.3,0.2,0.7,0.4,0.9c0.2,0.2,0.6,0.4,0.9,0.4c0.4,0,0.7-0.1,1-0.3c0.3-0.2,0.5-0.5,0.5-0.9
					c0.1-0.3,0-0.7-0.2-1l6.1-5.7c0,0,0.1-0.1,0.1-0.1C162.7,36.1,162.8,36.1,162.7,36z"/>
				<path class="st11" d="M132.5,41.4c-0.3,0-0.6,0.1-0.9,0.3c-0.3,0.2-0.4,0.5-0.5,0.8H128l-4.8-4.6v-2.6c0.3-0.1,0.6-0.3,0.9-0.5
					c0.2-0.3,0.3-0.6,0.3-1c0-0.3-0.2-0.7-0.4-0.9c-0.3-0.2-0.6-0.4-0.9-0.4c-0.4,0-0.7,0.1-1,0.3c-0.3,0.2-0.5,0.5-0.5,0.9
					c-0.1,0.3,0,0.7,0.2,1c0.2,0.3,0.5,0.5,0.8,0.6v2.7c0,0,0,0.1,0,0.1c0,0,0,0.1,0.1,0.1l5,4.8c0.1,0.1,0.1,0.1,0.2,0.1h3.3
					c0.1,0.3,0.2,0.5,0.4,0.7c0.2,0.2,0.4,0.3,0.7,0.3c0.3,0,0.5,0,0.8-0.1c0.2-0.1,0.5-0.3,0.6-0.5c0.2-0.2,0.3-0.5,0.3-0.7
					c0-0.3,0-0.5-0.1-0.8c-0.1-0.2-0.3-0.4-0.5-0.6C133,41.5,132.8,41.4,132.5,41.4L132.5,41.4z"/>
				<path class="st11" d="M123.4,28.2C123.4,28.2,123.4,28.2,123.4,28.2l3.2,2.1l0,4.2c-0.3,0.1-0.7,0.2-0.9,0.5
					c-0.2,0.3-0.3,0.6-0.3,1c0,0.3,0.2,0.7,0.4,0.9c0.2,0.3,0.6,0.4,0.9,0.4c0.3,0,0.7-0.1,1-0.3c0.3-0.2,0.5-0.5,0.5-0.9
					c0.1-0.3,0-0.7-0.2-1c-0.2-0.3-0.5-0.5-0.8-0.6l0-4.4c0-0.1,0-0.1,0-0.2c0,0-0.1-0.1-0.1-0.1l-2.8-1.9c0.2-0.2,0.4-0.4,0.5-0.7
					c0.1-0.3,0.1-0.6,0-0.9c-0.1-0.3-0.3-0.5-0.5-0.7c-0.2-0.2-0.5-0.3-0.8-0.3h0l-0.1-1.7l5.5-5c0,0,0.1-0.1,0.1-0.1
					c0,0,0-0.1,0-0.1l-0.1-1.5l-0.1-5.6c0.3-0.1,0.6-0.3,0.8-0.6c0.2-0.3,0.2-0.7,0.2-1c-0.1-0.3-0.3-0.6-0.5-0.9
					c-0.3-0.2-0.6-0.3-1-0.3c-0.3,0-0.7,0.2-0.9,0.4c-0.2,0.3-0.4,0.6-0.4,0.9c0,0.3,0.1,0.7,0.3,1c0.2,0.3,0.5,0.5,0.9,0.5l0.1,5.6
					c0,0,0,0,0,0l0.1,1.4l-5.5,4.9c0,0-0.1,0.1-0.1,0.1c0,0,0,0.1,0,0.1l0.1,2c-0.3,0.2-0.5,0.4-0.6,0.7c-0.1,0.3-0.1,0.6-0.1,0.9
					c0.1,0.3,0.3,0.6,0.5,0.8C122.8,28.1,123.1,28.2,123.4,28.2L123.4,28.2z"/>
				<path class="st11" d="M132.4,6.6l-0.2,12.9c0,0,0,0.1,0,0.1c0,0,0,0.1,0.1,0.1c0.1,0.1,0.2,0.1,0.2,0.1l17.8-0.3l2.1,2.6
					c-0.2,0.3-0.3,0.6-0.3,1c0,0.3,0.2,0.7,0.4,0.9c0.2,0.2,0.6,0.4,0.9,0.4c0.3,0,0.7-0.1,1-0.3c0.3-0.2,0.5-0.5,0.5-0.9
					c0.1-0.3,0-0.7-0.2-1c-0.2-0.3-0.5-0.5-0.8-0.6c-0.3-0.1-0.7-0.1-1,0.1l-2.2-2.7c0,0-0.1-0.1-0.1-0.1c0,0-0.1,0-0.1,0l-17.6,0.3
					l0.2-12.6c0.3-0.1,0.6-0.3,0.8-0.6c0.2-0.3,0.3-0.6,0.2-1c-0.1-0.3-0.2-0.7-0.5-0.9c-0.3-0.2-0.6-0.3-1-0.3
					c-0.3,0-0.7,0.1-0.9,0.4c-0.3,0.2-0.4,0.6-0.4,0.9c0,0.3,0.1,0.7,0.3,1C131.8,6.3,132.1,6.5,132.4,6.6L132.4,6.6z"/>
				<path class="st11" d="M143.7,28.2c0-0.3-0.1-0.5-0.2-0.7c-0.1-0.2-0.3-0.4-0.6-0.5c-0.2-0.1-0.5-0.2-0.8-0.1
					c-0.3,0-0.5,0.1-0.7,0.3c-0.2,0.2-0.4,0.4-0.5,0.6c-0.1,0.2-0.1,0.5-0.1,0.8c0.1,0.3,0.2,0.5,0.4,0.7c0.2,0.2,0.4,0.3,0.7,0.4
					l0.1,4.6c0,0,0,0.1,0,0.1c0,0,0,0.1,0.1,0.1l2.6,2.3c0.1,0.1,0.1,0.1,0.2,0.1h1.9c0.1,0.3,0.3,0.6,0.5,0.9
					c0.3,0.2,0.6,0.3,1,0.3c0.3,0,0.7-0.2,0.9-0.4c0.2-0.2,0.4-0.6,0.4-0.9c0-0.3-0.1-0.7-0.3-1c-0.2-0.3-0.5-0.5-0.9-0.5
					c-0.3-0.1-0.7,0-1,0.2c-0.3,0.2-0.5,0.5-0.6,0.8h-1.8l-2.4-2.1l-0.1-4.4c0.3-0.1,0.6-0.2,0.8-0.5
					C143.6,28.9,143.7,28.6,143.7,28.2z"/>
				<path class="st11" d="M148.2,33.6c0.3,0,0.6-0.1,0.9-0.3c0.3-0.2,0.4-0.5,0.5-0.8h7.6c0.1,0.3,0.3,0.6,0.6,0.8
					c0.3,0.2,0.6,0.3,1,0.2c0.3,0,0.7-0.2,0.9-0.5c0.2-0.3,0.3-0.6,0.3-1c0-0.3-0.1-0.7-0.4-0.9c-0.2-0.3-0.6-0.4-0.9-0.5
					c-0.3,0-0.7,0.1-1,0.3c-0.3,0.2-0.5,0.5-0.6,0.8h-7.6c-0.1-0.3-0.2-0.5-0.4-0.7c-0.2-0.2-0.4-0.3-0.7-0.4
					c-0.3-0.1-0.5,0-0.8,0.1c-0.2,0.1-0.5,0.3-0.6,0.5c-0.2,0.2-0.3,0.5-0.3,0.7c0,0.3,0,0.5,0.1,0.8c0.1,0.2,0.3,0.4,0.5,0.6
					C147.7,33.5,147.9,33.6,148.2,33.6L148.2,33.6z"/>
				<path class="st11" d="M156,37.7c0-0.2,0-0.4-0.1-0.6c-0.1-0.2-0.2-0.4-0.4-0.5c-0.2-0.1-0.4-0.2-0.6-0.3c-0.2-0.1-0.4-0.1-0.6,0
					c-0.2,0-0.4,0.1-0.6,0.3c-0.2,0.1-0.3,0.3-0.4,0.5c-0.1,0.2-0.2,0.4-0.2,0.6c0,0.2,0,0.4,0.1,0.6l-2.4,2.2
					c-0.1,0.1-0.1,0.1-0.1,0.2l-0.1,2.1l-2.6,0.2l-10.9-9.3l-0.1-2.5c0.3-0.1,0.6-0.3,0.8-0.6c0.2-0.3,0.2-0.7,0.2-1
					c-0.1-0.3-0.3-0.6-0.5-0.9c-0.3-0.2-0.6-0.3-1-0.3c-0.3,0-0.7,0.2-0.9,0.4c-0.2,0.3-0.4,0.6-0.4,0.9c0,0.3,0.1,0.7,0.3,1
					s0.5,0.4,0.9,0.5l0.1,2.6c0,0,0,0.1,0,0.1c0,0,0.1,0.1,0.1,0.1l11.1,9.5c0.1,0.1,0.1,0.1,0.2,0.1h0l3.1-0.2c0.1,0,0.2,0,0.2-0.1
					c0.1-0.1,0.1-0.1,0.1-0.2l0.1-2.3l2.3-2.1c0.2,0.2,0.5,0.3,0.7,0.3s0.5,0,0.8-0.1c0.2-0.1,0.5-0.3,0.6-0.5
					C156,38.2,156,38,156,37.7L156,37.7z"/>
				<path class="st11" d="M139,40.6c-0.3,0-0.6,0.1-0.9,0.3l-6.1-6.2l-0.1-7c0-0.1,0-0.1,0-0.1c0,0-0.1-0.1-0.1-0.1l-1.5-1.2
					c0-0.1,0-0.2,0-0.4c0-0.3-0.1-0.7-0.3-0.9c-0.2-0.3-0.5-0.4-0.8-0.5c-0.3-0.1-0.7,0-1,0.2c-0.3,0.2-0.5,0.4-0.6,0.7
					c-0.1,0.3-0.1,0.7,0,1s0.3,0.6,0.6,0.8c0.3,0.2,0.6,0.2,1,0.2c0.3,0,0.6-0.2,0.9-0.4l1.3,1l0.1,7c0,0.1,0,0.2,0.1,0.2l6.3,6.4
					c-0.1,0.2-0.1,0.4-0.1,0.6c0,0.3,0.1,0.6,0.2,0.8c0.2,0.2,0.4,0.4,0.6,0.5c0.3,0.1,0.5,0.1,0.8,0.1c0.3-0.1,0.5-0.2,0.7-0.4
					c0.2-0.2,0.3-0.5,0.4-0.7c0.1-0.3,0-0.6-0.1-0.8c-0.1-0.3-0.3-0.5-0.5-0.6C139.5,40.7,139.3,40.6,139,40.6L139,40.6z"/>
			</g>
			<path class="st12" d="M126.8,13.8c-0.3-0.2-0.5-0.5-0.6-0.9c-0.1-0.3-0.2-0.7-0.2-1c0-0.4,0.1-0.7,0.2-1c0.1-0.3,0.3-0.6,0.6-0.9
				c0.6-0.5,1.3-0.8,2-0.8s1.5,0.3,2,0.8c0.3,0.2,0.5,0.5,0.6,0.9c0.1,0.3,0.2,0.7,0.2,1c0,0.4-0.1,0.7-0.2,1
				c-0.1,0.3-0.3,0.6-0.6,0.9c-0.6,0.5-1.3,0.8-2,0.8S127.4,14.3,126.8,13.8z"/>
			<path class="st13" d="M131.1,16.7h-4.6v18h4.6V16.7z"/>
			<path class="st12" d="M152.6,38.8l-3.5-4.1c-1,0.2-1.9,0.4-2.9,0.4c-2.1,0-4.1-0.5-5.9-1.5c-1.8-1-3.2-2.4-4.2-4.1
				c-1-1.8-1.6-3.8-1.6-6c0-2.2,0.5-4.2,1.6-6c1-1.7,2.5-3.2,4.2-4.1c1.8-1,3.8-1.5,5.9-1.5c2.1,0,4.1,0.5,5.9,1.5
				c1.8,1,3.2,2.4,4.2,4.1c1,1.8,1.5,3.8,1.5,6c0,1.9-0.4,3.8-1.3,5.5c-0.8,1.6-2,3-3.5,4.1l5.2,5.9H152.6z M140.1,27.4
				c0.5,1.1,1.4,2,2.5,2.7c1.1,0.6,2.4,1,3.6,0.9c1.4,0,2.6-0.3,3.6-0.9c1.1-0.6,1.9-1.6,2.4-2.7c0.6-1.1,0.9-2.5,0.9-4
				c0-1.5-0.3-2.8-0.9-4c-0.5-1.1-1.4-2-2.4-2.6c-1-0.6-2.3-0.9-3.6-0.9c-1.3,0-2.5,0.3-3.6,0.9c-1.1,0.6-1.9,1.5-2.5,2.6
				c-0.6,1.1-0.9,2.5-0.9,4C139.2,24.9,139.5,26.2,140.1,27.4z"/>
		</g>
	</g>
</g>
</svg>
